…
``` r
players_post1984_pca_clusters_year
```

    ## # A tibble: 111 x 3
    ## # Groups:   yearSeason, hier_cluster [111]
    ##    yearSeason hier_cluster     n
    ##         <dbl>        <int> <int>
    ##  1       1984            1    78
    ##  2       1984            2    44
    ##  3       1984            3   112
    ##  4       1985            1    61
    ##  5       1985            2    45
    ##  6       1985            3   133
    ##  7       1986            1    65
    ##  8       1986            2    66
    ##  9       1986            3   108
    ## 10       1987            1    72
    ## # … with 101 more rows
…
